data/on.vcd
$timescale 1us $end
$scope module logic $end
$var wire 1 ! data $end
$upscope $end
$enddefinitions $end
$dumpvars
$x!
$end
#0
0!
#8457
1!
#12216
0!
#12718
1!
#14278
0!
#14778
1!
#16345
0!
#16843
1!
#18425
0!
#18906
1!
#20483
0!
#20969
1!
#22533
0!
#23032
1!
#24609
0!
#25096
1!
#26659
0!
#27158
1!
#28728
0!
#29218
1!
#30788
0!
#31283
1!
#32854
0!
#33345
1!
#34923
0!
#35408
1!
#36990
0!
#37470
1!
#39035
0!
#39536
1!
#41101
0!
#41597
1!
#43168
0!
#43658
1!
#45227
0!
#45724
1!
#46261
0!
#46752
1!
#47293
0!
#47781
1!
#48323
0!
#48810
1!
#50377
0!
#50874
1!
#51408
0!
#51900
1!
#52445
0!
#52930
1!
#53466
0!
#53960
1!
#54499
0!
#54987
1!
#55526
0!
#56017
1!
#57593
0!
#58079
1!
#59654
0!
#60144
1!
#61714
0!
#62204
1!
#62743
0!
#63234
1!
#64804
0!
#65300
1!
#66864
0!
#67358
1!
#67900
0!
#68391
1!
#69959
0!
#78400
1!
#82174
0!
#82658
1!
#84236
0!
#84721
1!
#86307
0!
#86785
1!
#88361
0!
#88847
1!
#90425
0!
#90911
1!
#92487
0!
#92975
1!
#94546
0!
#95036
1!
#96623
0!
#97099
1!
#98674
0!
#99162
1!
#100740
0!
#101223
1!
#102800
0!
#103289
1!
#104867
0!
#105350
1!
#106937
0!
#107415
1!
#108991
0!
#109479
1!
#111051
0!
#111540
1!
#113120
0!
#113606
1!
#115183
0!
#115667
1!
#116208
0!
#116696
1!
#117244
0!
#117728
1!
#118276
0!
#118754
1!
#120335
0!
#120819
1!
#121365
0!
#121850
1!
#122403
0!
#122876
1!
#123421
0!
#123906
1!
#124453
0!
#124937
1!
#125482
0!
#125966
1!
#127544
0!
#128030
1!
#129609
0!
#130092
1!
#131679
0!
#132156
1!
#132704
0!
#133185
1!
#134767
0!
#135249
1!
#136832
0!
#137312
1!
#137857
0!
#138340
1!
#139914
0!
#148354
1!
#152137
0!
#152614
1!
#154201
0!
#154677
1!
#156260
0!
#156741
1!
#158326
0!
#158803
1!
#160390
0!
#160866
1!
#162446
0!
#162930
1!
#164512
0!
#164992
1!
#166574
0!
#167055
1!
#168643
0!
#169119
1!
#170707
0!
#171183
1!
#172774
0!
#173245
1!
#174830
0!
#175309
1!
#176896
0!
#177374
1!
#178962
0!
#179434
1!
#181017
0!
#181496
1!
#183083
0!
#183561
1!
#185144
0!
#185624
1!
#186176
0!
#186653
1!
#187209
0!
#187684
1!
#188245
0!
#188711
1!
#190292
0!
#190774
1!
#191324
0!
#191805
1!
#192355
0!
#192833
1!
#193381
0!
#193862
1!
#194413
0!
#194892
1!
#195444
0!
#195920
1!
#197500
0!
#197984
1!
#199570
0!
#200046
1!
#201629
0!
#202109
1!
#202663
0!
#203138
1!
#204726
0!
#205201
1!
#206785
0!
#207264
1!
#207813
0!
#208293
1!
#209874
0!
#218303
1!
#222090
0!
#222562
1!
#224147
0!
#224626
1!
#226212
0!
#226687
1!
#228272
0!
#228751
1!
#230336
0!
#230813
1!
#232404
0!
#232878
1!
#234461
0!
#234941
1!
#236528
0!
#237004
1!
#238592
0!
#239068
1!
#240655
0!
#241130
1!
#242714
0!
#243194
1!
#244777
0!
#245257
1!
#246839
0!
#247320
1!
#248908
0!
#249385
1!
#250966
0!
#251447
1!
#253028
0!
#253511
1!
#255101
0!
#255575
1!
#256132
0!
#256604
1!
#257153
0!
#257632
1!
#258188
0!
#258663
1!
#260249
0!
#260725
1!
#261274
0!
#261756
1!
#262307
0!
#262785
1!
#263340
0!
#263815
1!
#264367
0!
#264843
1!
#265397
0!
#265872
1!
#267458
0!
#267935
1!
#269520
0!
#269999
1!
#271587
0!
#272060
1!
#272615
0!
#273092
1!
#274683
0!
#275156
1!
#276738
0!
#277217
1!
#277770
0!
#278246
1!
#279843
0!
#288258
1!
#292046
0!
#292521
1!
#294112
0!
#294582
1!
#296175
0!
#296645
1!
#298231
0!
#298710
1!
#300298
0!
#300774
1!
#302364
0!
#302836
1!
#304427
0!
#304901
1!
#306504
0!
#306962
1!
#308551
0!
#309028
1!
#310612
0!
#311090
1!
#312681
0!
#313153
1!
#314744
0!
#315216
1!
#316807
0!
#317279
1!
#318870
0!
#319342
1!
#320929
0!
#321404
1!
#322995
0!
#323470
1!
#325055
0!
#325532
1!
#326089
0!
#326562
1!
#327118
0!
#327591
1!
#328146
0!
#328620
1!
#330204
0!
#330684
1!
#331237
0!
#331713
1!
#332269
0!
#332742
1!
#333294
0!
#333771
1!
#334333
0!
#334801
1!
#335356
0!
#335832
1!
#337419
0!
#337894
1!
#339480
0!
#339958
1!
#341538
0!
#342022
1!
#342580
0!
#343049
1!
#344638
0!
#345115
1!
#346703
0!
#347176
1!
#347729
0!
#348207
1!
#349792
0!
#358221
1!
#362004
0!
#362482
1!
#364071
0!
#364543
1!
#366137
0!
#366607
1!
#368198
0!
#368671
1!
#370258
0!
#370733
1!
#372327
0!
#372796
1!
#374386
0!
#374859
1!
#376445
0!
#376920
1!
#378508
0!
#378987
1!
#380573
0!
#381047
1!
#382636
0!
#383112
1!
#384698
0!
#385174
1!
#386767
0!
#387237
1!
#388835
0!
#389301
1!
#390891
0!
#391363
1!
#392961
0!
#393428
1!
#395022
0!
#395489
1!
#396047
0!
#396520
1!
#397076
0!
#397550
1!
#398108
0!
#398580
1!
#400173
0!
#400641
1!
#401195
0!
#401672
1!
#402234
0!
#402700
1!
#403255
0!
#403731
1!
#404285
0!
#404759
1!
#405320
0!
#405788
1!
#407375
0!
#407852
1!
#409444
0!
#409914
1!
#411508
0!
#411979
1!
#412538
0!
#413009
1!
#414593
0!
#415071
1!
#416659
0!
#417135
1!
#417689
0!
#418164
1!
#419755
0!
#428180
1!
#431973
0!
#432439
1!
#434029
0!
#434503
1!
#436094
0!
#436567
1!
#438159
0!
#438630
1!
#440226
0!
#440694
1!
#442290
0!
#442759
1!
#444350
0!
#444820
1!
#446414
0!
#446884
1!
#448485
0!
#448948
1!
#450535
0!
#451011
1!
#452606
0!
#453073
1!
#454660
0!
#455138
1!
#456726
0!
#457203
1!
#458792
0!
#459266
1!
#460857
0!
#461329
1!
#462916
0!
#463391
1!
#464983
0!
#465454
1!
#466016
0!
#466485
1!
#467052
0!
#467516
1!
#468073
0!
#468543
1!
#470146
0!
#470606
1!
#471165
0!
#471636
1!
#472192
0!
#472666
1!
#473223
0!
#473695
1!
#474258
0!
#474725
1!
#475286
0!
#475755
1!
#477343
0!
#477817
1!
#479402
0!
#479878
1!
#481470
0!
#481942
1!
#482505
0!
#482973
1!
#484560
0!
#485035
1!
#486628
0!
#487099
1!
#487655
0!
#488128
1!
#489713
0!
#498146
1!
#501952
0!
#502406
1!
#503992
0!
#504469
1!
#506061
0!
#506529
1!
#508119
0!
#508591
1!
#510184
0!
#510655
1!
#512245
0!
#512718
1!
#514310
0!
#514783
1!
#516374
0!
#516844
1!
#518438
0!
#518908
1!
#520497
0!
#520971
1!
#522563
0!
#523033
1!
#524628
0!
#525096
1!
#526683
0!
#527160
1!
#528751
0!
#529223
1!
#530814
0!
#531285
1!
#532882
0!
#533349
1!
#534935
0!
#535410
1!
#535965
0!
#536441
1!
#536996
0!
#537469
1!
#538026
0!
#538498
1!
#540087
0!
#540564
1!
#541117
0!
#541592
1!
#542146
0!
#542622
1!
#543178
0!
#543651
1!
#544210
0!
#544684
1!
#545237
0!
#545710
1!
#547302
0!
#547774
1!
#549364
0!
#549837
1!
#551427
0!
#551899
1!
#552466
0!
#552928
1!
#554523
0!
#554991
1!
#556580
0!
#557053
1!
#557614
0!
#558083
1!
#559671
0!
#568100
1!
#571892
0!
#572359
1!
#573951
0!
#574421
1!
#576012
0!
#576484
1!
#578077
0!
#578548
1!
#580141
0!
#580610
1!
#582209
0!
#582672
1!
#584264
0!
#584735
1!
#586325
0!
#586797
1!
#588386
0!
#588862
1!
#590451
0!
#590924
1!
#592520
0!
#592988
1!
#594576
0!
#595049
1!
#596638
0!
#597112
1!
#598704
0!
#599174
1!
#600776
0!
#601237
1!
#602830
0!
#603301
1!
#604905
0!
#605362
1!
#605923
0!
#606392
1!
#606948
0!
#607421
1!
#607977
0!
#608451
1!
#610044
0!
#610512
1!
#611069
0!
#611543
1!
#612102
0!
#612571
1!
#613133
0!
#613601
1!
#614167
0!
#614630
1!
#615190
0!
#615659
1!
#617253
0!
#617722
1!
#619317
0!
#619785
1!
#621381
0!
#621848
1!
#622407
0!
#622878
1!
#624468
0!
#624939
1!
#626533
0!
#627002
1!
#627562
0!
#628032
1!
#629620
0!
#638050
1!
#641845
0!
#642308
1!
#643898
0!
#644369
1!
#645959
0!
#646432
1!
#648032
0!
#648491
1!
#650089
0!
#650555
1!
#652154
0!
#652618
1!
#654216
0!
#654681
1!
#656273
0!
#656742
1!
#658340
0!
#658806
1!
#660407
0!
#660870
1!
#662466
0!
#662931
1!
#664528
0!
#664995
1!
#666591
0!
#667057
1!
#668663
0!
#669121
1!
#670722
0!
#671186
1!
#672783
0!
#673248
1!
#674837
0!
#675311
1!
#675873
0!
#676342
1!
#676909
0!
#677370
1!
#677934
0!
#678402
1!
#679992
0!
#680465
1!
#681026
0!
#681494
1!
#682052
0!
#682524
1!
#683081
0!
#683553
1!
#684118
0!
#684584
1!
#685152
0!
#685611
1!
#687203
0!
#687675
1!
#689277
0!
#689739
1!
#691332
0!
#691802
1!
#692367
0!
#692831
1!
#694425
0!
#694897
1!
#696488
0!
#696958
1!
#697521
0!
#697989
1!
